coronavirus | TheHill
       BY Mark J. Rozell and … 04/25/20 06:00 PM EDT
       BY Will Marshall, Opinion Contributor 04/24/20 08:30 AM EDT
       BY Bhaskar Chakravorti, Opinion Contributor 04/23/20 06:30 PM EDT
       BY Donald J. Boudreaux and … 04/23/20 05:30 PM EDT
       BY Javed Ali and … 04/23/20 09:45 AM EDT
       BY Liz Peek, Opinion Contributor 04/23/20 08:30 AM EDT
       BY Shanthi Nataraj and … 04/22/20 07:30 PM EDT
       BY Dr. Scott W. Atlas, Opinion Contributor 04/22/20 12:30 PM EDT
       BY Stephen Blank, Opinion Contributor 04/21/20 08:30 PM EDT
       BY Robert A. Manning, Opinion Contributor 04/21/20 07:30 PM EDT
       BY Marik von Rennenkampff, Opinion Contributor 04/21/20 07:30 AM EDT
       BY Jonathan Williams and … 04/20/20 06:30 PM EDT
       BY Maria Cardona, Opinion Contributor 04/20/20 02:00 PM EDT
       BY David Wilcox, Opinion Contributor 04/20/20 12:00 PM EDT
       BY Christine McDaniel, Opinion Contributor 04/18/20 06:00 PM EDT
       BY Heather Mac Donald, Opinion Contributor 04/18/20 08:00 AM EDT
 The Hill 1625 K Street, NW Suite 900 Washington DC 20006 | 202-628-8500 tel | 202-628-8503 fax
 https://thehill.com/events-facts/coronavirus
