Coronavirus Update (Live): 2,988,772 Cases and 206,725 Deaths from COVID-19 Virus Pandemic - Worldometer
 Graphs
 SARS-CoV-2 Transmission - Air distance, air currents, duration in air, humidity, airborne transmission, duration on objects and surfaces, floor
 The coronavirus COVID-19 is affecting
 210 countries and territories around the world and 2 international conveyances. The day is reset after midnight GMT+0. The list of countries and territories and their continental regional classification is based on the United Nations Geoscheme. Sources are provided under "Latest Updates". Learn more about Worldometer's COVID-19 data
 Report coronavirus cases
     var tabs = ["today","yesterday"];
     var cur_continent = 'All';
     var cur_table = 'main_table_countries_today';
     $(document).ready(function() {
         tabs.forEach(function(val) {
             $('#nav-' + val + '-tab a').click(function(e) {
                 e.preventDefault();
                 $(this).tab('show');
             })
             $('#main_table_countries_' + val).dataTable({
                 "scrollCollapse": true,
                 "scrollX": true,
                 "order": [
                     [1, 'desc']
                 ],
                 //"dom": '<"top"f><"clear">',
                 "dom": "<'row pills_row'<'col-sm-9 col-md-9'><'col-sm-3 col-md-3'f>>" +
                     "<'#ctabs-row.row'<'#continents-tab" + val + ".w-100'>>",
                 "paging": false,
                 columnDefs: [{
                     data: function(source, type, val) {
                         if (type === 'set') {
                             source[5] = val;
                             return;
                         } else if (type === 'sort') {
                             // source[iColIndex] = is the cell value (<td> DATA THAT NEEDS TO BE SORTED <span>Data Label</span> </td>)
                             // return the right data to sort
                             if (source[5] == 'N/A') {
                                 return 0;
                             }
                         }
                         return source[5];
                     },
                     type: 'num-fmt',
                     aTargets: [5]
                 }],
                 initComplete: function(settings, json) {
                     var ctabs = $('#ctabs').clone();
                     ctabs.attr('id', 'ctabs' + val);
                     ctabs.appendTo($('#continents-tab' + val));
                     ctabs.find('a').on('click', function() {
                         cur_continent = $(this).html();
                         var cur_continent_original = cur_continent;
                         if (cur_continent == 'Oceania') {
                             cur_continent = 'Australia/Oceania';
                         if (cur_continent != 'All') {
                             $('.total_row_body').hide();
                         } else {
                             $('.total_row_body').show();
                         cur_table = 'main_table_countries_' + val;
                         if (val == 'today') {
                             // trigger yesterday
                             $('#ctabsyesterday li').removeClass('active');
                             $('#ctabsyesterday').find('a:contains("' + cur_continent_original + '")').parent().addClass('active');
                             $('#main_table_countries_yesterday').find('.row_continent').hide();
                             $('#main_table_countries_yesterday').DataTable().draw();
                             $('#main_table_countries_yesterday').find('tr[data-continent="' + cur_continent + '"]').show();
                             // trigger today
                             $('#ctabstoday li').removeClass('active');
                             $('#ctabstoday').find('a:contains("' + cur_continent_original + '")').parent().addClass('active');
                             $('#main_table_countries_today').find('.row_continent').hide();
                             $('#main_table_countries_today').DataTable().draw();
                             $('#main_table_countries_today').find('tr[data-continent="' + cur_continent + '"]').show();
                         $('#main_table_countries_' + val).find('.row_continent').hide();
                         $('#main_table_countries_' + val).DataTable().draw();
                         $('#main_table_countries_' + val).find('tr[data-continent="' + cur_continent + '"]').show();
                     })
                     ctabs.show();
                     $('#main_table_countries_' + val).DataTable().draw();
                 }
             });
             //$( '.main_table_countries th' ).stickybits();
             $.fn.dataTable.ext.search.push(
                 function(settings, data, dataIndex) {
                     // Don't filter on anything other than "myTable"                    
                     /*   if (settings.nTable.id !== cur_table) {
                            return true;
                        }*/
                     // Filtering for "myTable".
                     if (cur_continent == 'All') {
                         return true;
                     }
                     if (
                         data[12] == cur_continent
                     ) {
                     } else {
                         return false;
             );
             $('#main_table_countries_today_filter input').on('change', function() {
                 $('#main_table_countries_yesterday_filter input').val($(this).val());
                 $('#main_table_countries_yesterday_filter input').keyup();
             $('#main_table_countries_yesterday_filter input').on('change', function() {
                 $('#main_table_countries_today_filter input').val($(this).val());
                 $('#main_table_countries_today_filter input').keyup();
         });
     });
     .small_font_td {
         font-size: 12px;
     }
     .total_row td {
         font-weight: bold;
         text-align: right;
     .main_table_countries_div {
         font-size: 15.5px;
         text-align: left;
         width: 100%;
         overflow-x: unset !important;
         overflow-y: unset !important;
     .main_table_countries td {
         border-color: #ccc !important;
     .main_table_countries th {
         font-size: 14px;
         color: #666666;
         position: sticky !important;
         position: -webkit-sticky !important;
         -webkit-transform: translateZ(0) !important;
         transform: translateZ(0) !important;
         top: 0;
         background: #fff;
         box-shadow: 0 2px 2px -1px rgba(0, 0, 0, 0.4);
     .main_table_countries th>* {
     .mt_a {
         text-decoration: underline;
     .mt_pills a {
         padding: 0 !important;
         padding-top: 4px !important;
         padding-bottom: 4px !important;
         padding-left: 14px !important;
         padding-right: 14px !important;
         text-decoration: none;
     .mt_pills_c.active a {
         background-color: #6C757D !important;
         color: #fff !important;
     .mt_buttons {
         margin-bottom: 16px !important;
     @media (min-width: 900px) {
         .mt_buttons {
             position: absolute;
             top: 0px;
         }
     .total_row_world {
         text-align: right !important;
         background-color: #DFDFDF !important;
         color: #363945 !important;
         font-weight: normal !important;
     .total_row_world td {
         background-color: #DFDFDF;
     #ctabs-row {
         margin-left: 0;
         margin-right: 0;
     .nav-tabs {
         border-bottom: none !important;
     .nav-tabs a {
         /*color: #fff !important;*/
     #main_table_countries_today,
     #main_table_countries_yesterday {
         margin-top: 0px !important;
     .pills_row {
     /* fixed header fixes 
     table.dataTable {
         margin-top: 0 !important;
     }*/
 Now
 Yesterday
 All
 Europe
 North America
 Asia
 South America
 Africa
 Oceania
 Country,Other
 TotalCases
 NewCases
 TotalDeaths
 NewDeaths
 TotalRecovered
 ActiveCases
 Serious,Critical
 Tot Cases/1M pop
 Deaths/1M pop
 TotalTests
 Tests/
 1M pop
 Continent
 1,062,081
 +27,067
 59,896
 +1,297
 145,909
 856,276
 16,394
 1,276,495
 +23,998
 121,853
 +1,735
 435,694
 718,948
 25,260
 472,033
 +11,369
 17,232
 +281
 227,906
 226,895
 6,041
 136,598
 +5,449
 6,207
 +203
 49,582
 80,809
 9,699
 8,282
 +25
 101
 +3
 6,751
 1,430
 45
 Australia/Oceania
 32,562
 +1,460
 1,421
 +42
 10,001
 21,140
 140
 721
 15
 645
 61
 World
 2,988,772
 +69,368
 206,725
 +3,561
 876,488
 1,905,559
 57,583
 383
 26.5
 USA
 984,891
 +24,240
 55,354 
 +1,098
 118,735
 810,802
 15,135
 2,975
 167
 5,451,210
 16,469
 Spain
 226,629
 +2,870
 23,190 
 +288
 117,727
 85,712
 7,764
 4,847
 496
 1,199,548
 25,656
 Italy
 197,675
 +2,324
 26,644 
 +260
 64,928
 106,103
 2,009
 3,269
 441
 1,757,659
 29,071
 France
 162,100
 +612
 22,856 
 +242
 44,903
 94,341
 4,682
 2,483
 350
 463,662
 7,103
 Germany
 157,495
 +982
 5,944 
 +67
 112,000
 39,551
 2,570
 1,880
 71
 2,072,669
 24,738
 UK
 152,840
 +4,463
 20,732 
 +413
 N/A
 131,764
 1,559
 2,251
 305
 669,850
 9,867
 Turkey
 110,130
 +2,357
 2,805 
 +99
 29,140
 78,185
 1,776
 1,306
 33
 898,742
 10,656
 Iran
 90,481
 +1,153
 5,710 
 +60
 69,657
 15,114
 3,079
 1,077
 68
 421,313
 5,016
 Russia
 80,949
 +6,361
 747 
 +66
 6,767
 73,435
 2,300
 555
 2,877,699
 19,719
 Brazil
 61,888
 +2,692
 4,205  
 +160
 30,152
 27,531
 8,318
 291
 20
 291,922
 1,373
 Canada
 46,644
 +1,290
 2,560 
 +95
 17,239
 26,845
 557
 1,236
 684,271
 18,130
 Belgium
 46,134
 +809
 7,094 
 +177
 10,785
 28,255
 891
 3,981
 612
 189,067
 16,313
 Netherlands
 37,845
 +655
 4,475 
 33,120
 934
 2,209
 261
 193,950
 11,319
 Switzerland
 29,061
 +167
 1,610 
 +11
 21,300
 6,151
 204
 3,358
 186
 245,300
 28,343
 India
 27,890
 +1,607
 882 
 +57
 6,523
 20,485
 0.6
 625,309
 453
 Peru
 27,517
 +2,186
 728 
 +28
 8,088
 18,701
 554
 835
 22
 232,747
 7,059
 Portugal
 23,864
 +472
 903 
 +23
 1,329
 21,632
 182
 2,340
 89
 330,512
 32,414
 Ecuador
 22,719
 576 
 1,366
 20,777
 127
 1,288
 56,513
 3,203
 Ireland
 19,262
 +701
 1,087 
 +24
 9,233
 8,942
 142
 3,901
 220
 127,319
 25,785
 Sweden
 18,640
 +463
 2,194 
 +2
 1,005
 15,441
 399
 1,846
 217
 94,500
 9,357
 Saudi Arabia
 17,522
 +1,223
 139 
 2,357
 15,026
 115
 503
 200,000
 5,745
 Israel
 15,443
 +145
 201 
 6,731
 8,511
 133
 1,784
 23
 302,691
 34,971
 Austria
 15,225
 +77
 542 
 +6
 12,282
 2,401
 145
 1,690
 60
 227,631
 25,274
 Mexico
 13,842
 +970
 1,305 
 +84
 7,149
 5,388
 378
 107
 10
 65,500
 508
 Singapore
 13,624
 +931
 12 
 1,060
 12,552
 2,329
 121,774
 20,815
 Chile
 13,331
 +473
 189 
 +8
 7,024
 6,118
 418
 697
 155,975
 8,159
 Pakistan
 13,328
 +605
 281 
 +12
 2,936
 10,111
 111
 144,365
 654
 Japan
 13,231
 360 
 1,656
 11,215
 287
 105
 147,454
 1,166
 Poland
 11,617
 +344
 535 
 2,265
 8,817
 160
 307
 14
 290,633
 7,679
 Romania
 11,036
 +401
 619 
 +18
 3,054
 7,363
 236
 574
 32
 136,518
 7,096
 S. Korea
 10,728
 +10
 242 
 8,717
 1,769
 55
 209
 598,285
 11,669
 Belarus
 10,463
 +873
 72 
 +5
 1,695
 8,696
 92
 1,107
 147,525
 15,612
 UAE
 10,349
 +536
 76 
 1,978
 8,295
 1,046
 1,022,326
 103,365
 Qatar
 10,287
 +929
 10 
 1,012
 9,265
 72
 3,571
 82,289
 28,562
 Indonesia
 8,882
 +275
 743 
 7,032
 72,099
 264
 Ukraine
 8,617
 +492
 209 
 840
 7,568
 197
 89,373
 2,044
 Denmark
 8,575
 +130
 422 
 +4
 5,805
 2,348
 70
 1,480
 73
 146,915
 25,364
 Serbia
 8,042
 +263
 156 
 1,182
 6,704
 85
 920
 18
 64,303
 7,360
 Philippines
 7,579
 +285
 501 
 +7
 862
 6,216
 69
 84,789
 774
 Norway
 7,511
 7,278
 49
 1,385
 37
 155,125
 28,614
 Czechia
 7,387
 +35
 220 
 2,545
 4,622
 79
 690
 21
 215,116
 20,087
 Australia
 6,711
 +16
 83 
 5,539
 1,089
 42
 263
 506,449
 19,861
 Dominican Republic
 6,135
 +209
 278 
 910
 4,947
 144
 566
 26
 22,498
 2,074
 Malaysia
 5,780
 +38
 98 
 3,862
 1,820
 36
 179
 131,491
 4,063
 Panama
 5,538
 +200
 159 
 338
 5,041
 1,283
 25,400
 5,887
 Bangladesh
 5,416
 +418
 145 
 122
 5,149
 0.9
 46,589
 283
 Colombia
 5,142
 233 
 1,067
 3,842
 117
 78,078
 1,534
 Finland
 4,576
 +101
 190 
 2,500
 1,886
 62
 826
 34
 80,300
 14,493
 South Africa
 4,546
 +185
 87 
 +1
 1,473
 2,986
 77
 168,643
 2,843
 Egypt
 4,534
 +215
 317 
 1,176
 3,041
 44
 90,000
 879
 Morocco
 4,065
 +168
 161 
 593
 3,311
 110
 26,472
 717
 Argentina
 3,780
 187 
 2,486
 84
 49,905
 1,104
 Luxembourg
 3,723
 88 
 3,104
 531
 5,947
 141
 39,003
 62,307
 Moldova
 3,408
 +104
 96 
 895
 2,417
 212
 845
 24
 11,763
 2,916
 Algeria
 3,382
 +126
 425 
 1,508
 1,449
 40
 6,500
 148
 Kuwait
 3,075
 +183
 20 
 806
 2,249
 720
 Thailand
 2,922
 +15
 51 
 2,594
 277
 0.7
 142,589
 2,043
 Kazakhstan
 2,693
 +92
 25 
 677
 1,991
 31
 143
 196,298
 10,454
 Bahrain
 2,647
 +59
 8 
 1,189
 1,450
 1,556
 114,110
 67,061
 Greece
 2,517
 134 
 577
 1,806
 46
 241
 13
 64,608
 6,199
 Hungary
 272 
 485
 1,743
 259
 28
 63,505
 6,574
 Croatia
 2,030
 +14
 55 
 1,103
 872
 494
 31,622
 7,703
 Oman
 1,998
 +93
 333
 1,655
 391
 Uzbekistan
 1,869
 789
 1,072
 56
 0.2
 242,536
 7,247
 Iraq
 1,263
 470
 71,471
 1,777
 Iceland
 1,792
 1,608
 174
 5,251
 29
 46,352
 135,833
 Armenia
 1,746
 +69
 28 
 833
 885
 589
 17,931
 6,051
 Azerbaijan
 1,645
 21 
 1,139
 162
 120,479
 11,883
 Estonia
 1,643
 49 
 233
 1,361
 1,239
 47,933
 36,134
 Cameroon
 1,621
 +103
 56 
 786
 779
 12
 Ghana
 1,550
 +271
 11 
 155
 1,384
 50
 0.4
 100,622
 3,238
 Afghanistan
 1,531
 +68
 50 
 207
 1,274
 39
 8,090
 208
 Bosnia and Herzegovina
 1,516
 +30
 59 
 624
 462
 25,830
 7,873
 New Zealand
 1,470
 +9
 18 
 1,142
 310
 120,981
 25,088
 Lithuania
 1,438
 41 
 467
 930
 17
 528
 104,488
 38,382
 Slovenia
 1,396
 82 
 221
 1,093
 671
 48,973
 23,557
 North Macedonia
 1,386
 +19
 61 
 500
 825
 665
 15,120
 7,257
 Slovakia
 1,379
 394
 967
 253
 70,928
 12,991
 Cuba
 1,369
 +32
 54 
 501
 814
 11
 121
 39,828
 3,516
 Bulgaria
 1,300
 +53
 205
 1,039
 41
 187
 27,000
 3,886
 Nigeria
 35 
 222
 925
 10,061
 Ivory Coast
 1,150
 +73
 14  
 468
 668
 0.5
 Hong Kong
 1,038
 4 
 753
 281
 138
 145,640
 19,426
 Djibouti
 1,023
 2 
 411
 610
 1,035
 11,741
 11,884
 Guinea
 996
 7 
 781
 76
 Tunisia
 949
 38 
 216
 695
 80
 20,818
 1,761
 Bolivia
 866
 46 
 74
 746
 4,995
 428
 Cyprus
 817
 14 
 655
 43,542
 36,064
 Latvia
 812
 267
 533
 430
 47,671
 Andorra
 738
 40 
 344
 354
 9,552
 518
 1,673
 21,653
 Albania
 726
 410
 288
 252
 7,279
 2,529
 Diamond Princess
 712
 13 
 54
 Lebanon
 707
 24 
 538
 104
 27,827
 4,077
 Niger
 696
 29 
 317
 5,013
 Costa Rica
 6 
 425
 136
 12,467
 2,447
 Kyrgyzstan
 682
 +17
 370
 304
 45,627
 6,994
 Senegal
 380
 466
 Burkina Faso
 632
 42 
 137
 30
 Honduras
 627
 +36
 65
 63
 3,457
 349
 Uruguay
 596
 +33
 172
 16,496
 4,749
 San Marino
 64
 433
 15,856
 1,208
 61,124
 Channel Islands
 525
 332
 158
 3,020
 201
 5,342
 30,725
 Sri Lanka
 523
 +71
 120
 396
 0.3
 13,850
 647
 Georgia
 486
 149
 331
 2,431
 Guatemala
 473
 +43
 415
 7,200
 402
 Malta
 448
 282
 1,015
 27,981
 63,371
 Jordan
 447
 337
 103
 63,737
 6,247
 DRC
 442
 +26
 364
 Somalia
 436
 +46
 23 
 403
 27
 Taiwan
 429
 60,459
 2,539
 Réunion
 417
 300
 Mayotte
 401
 +21
 9,164
 Mali
 389
 112
 254
 19
 2,172
 Kenya
 355
 106
 235
 17,992
 335
 Palestine
 342
 83
 257
 67
 5,293
 Mauritius
 9 
 299
 14,445
 11,358
 Venezuela
 323
 132
 181
 423,592
 14,896
 Montenegro
 321
 153
 161
 511
 5,085
 8,096
 Isle of Man
 308
 247
 43
 3,622
 2,854
 33,563
 Jamaica
 270
 2,868
 969
 Tanzania
 48
 El Salvador
 298
 18,686
 2,881
 Vietnam
 225
 212,965
 2,188
 Equatorial Guinea
 258
 1 
 249
 184
 854
 609
 Sudan
 237
 196
 Paraguay
 228
 134
 7,630
 1,070
 Maldives
 214
 +37
 5,296
 9,798
 Congo
 200
 175
 Rwanda
 191
 99
 6,959
 537
 Faeroe Islands
 178
 3,827
 6,588
 134,826
 Gabon
 176
 3 
 572
 Martinique
 Guadeloupe
 82
 372
 Myanmar
 146
 5 
 131
 0.09
 6,678
 123
 Brunei 
 315
 12,981
 29,672
 Gibraltar
 4,037
 2,174
 64,528
 Liberia
 124
 25
 87
 Madagascar
 53
 Ethiopia
 0.03
 13,645
 119
 Cambodia
 5,768
 345
 Trinidad and Tobago
 1,514
 1,082
 French Guiana
 Bermuda
 109
 1,750
 1,173
 18,835
 Cabo Verde
 791
 1,423
 Aruba
 100
 937
 1,622
 15,192
 Togo
 98
 5,951
 719
 Monaco
 94
 2,395
 102
 Sierra Leone
 93
 Zambia
 88
 2,586
 Liechtenstein
 2,151
 900
 23,605
 Bahamas
 47
 203
 Barbados
 275
 1,502
 5,227
 Mozambique
 1,644
 Uganda
 75
 20,329
 444
 Sint Maarten
 1,726
 303
 266
 6,204
 Guyana
 562
 Haiti
 Cayman Islands
 1,065
 940
 14,303
 Benin
 0.08
 Libya
 1,623
 Eswatini
 59
 51
 714
 615
 French Polynesia
 57
 16
 2,069
 7,365
 Guinea-Bissau
 1,500
 762
 Nepal
 52
 51,367
 1,763
 Chad
 Macao
 Syria
 Eritrea
 Saint Martin
 38
 983
 78
 Mongolia
 7,292
 2,224
 Malawi
 617
 Zimbabwe
 6,067
 408
 Angola
 0.8
 0.06
 Antigua and Barbuda
 245
 113
 1,154
 Timor-Leste
 322
 244
 Botswana
 5,023
 2,136
 CAR
 Laos
 1,735
 238
 Belize
 816
 2,052
 Fiji
 1,004
 Grenada
 1,555
 New Caledonia
 3,952
 Curaçao
 1,853
 Dominica
 5,320
 Namibia
 675
 Saint Kitts and Nevis
 260
 4,887
 Saint Lucia
 446
 2,429
 St. Vincent Grenadines
 126
 108
 973
 Nicaragua
 Falkland Islands
 3,736
 353
 101,437
 Burundi
 284
 Montserrat
 2,204
 7,212
 Turks and Caicos
 2,144
 Greenland
 194
 1,200
 21,138
 Seychelles
 Gambia
 166
 Suriname
 404
 689
 MS Zaandam
 Vatican City
 11,236
 Papua New Guinea
 604
 Mauritania
 1,032
 Bhutan
 9,791
 12,689
 British Virgin Islands
 198
 St. Barth
 607
 South Sudan
 Western Sahara
 Caribbean Netherlands
 4,195
 Sao Tome and Principe
 Anguilla
 Saint Pierre Miquelon
 173
 Yemen
 China
 82,827
 4,632 
 77,394
 801
 58
 Total:
 383.4
 460,664
 +12,592
 16,951
 +350
 220,641
 223,072
 6,053
 1,035,014
 +38,677
 58,599
 +2,406
 144,273
 832,142
 16,361
 1,252,497
 +27,183
 120,118
 +2,794
 407,049
 725,330
 25,893
 131,149
 +10,983
 6,004
 +466
 47,916
 77,229
 9,690
 8,257
 6,558
 1,601
 31,102
 +1,262
 +51
 9,530
 20,193
 2,919,404
 +90,722
 203,164
 +6,069
 836,612
 1,879,628
 58,202
 375
 26.1
 82,816
 77,346
 838
 960,651
 +35,419
 54,256 
 +2,065
 118,162
 788,233
 15,110
 2,902
 164
 5,279,237
 15,949
 223,759
 +3,995
 22,902 
 +378
 95,708
 105,149
 7,705
 4,786
 490
 930,230
 19,896
 195,351
 26,384 
 +415
 63,120
 105,847
 2,102
 3,231
 1,707,743
 28,245
 161,488
 +1,660
 22,614 
 +369
 44,594
 94,280
 4,725
 2,474
 346
 156,513
 +1,514
 5,877 
 +117
 109,800
 40,836
 2,908
 1,868
 148,377
 +4,913
 20,319 
 +813
 127,714
 2,186
 640,792
 9,439
 107,773
 +2,861
 2,706 
 +106
 25,582
 79,485
 1,782
 1,278
 868,565
 10,298
 89,328
 +1,134
 5,650 
 +76
 68,193
 15,485
 3,096
 1,064
 410,075
 4,882
 74,588
 +5,966
 681 
 6,250
 67,657
 2,721,500
 18,649
 59,196
 +6,201
 4,045 
 +375
 29,160
 25,991
 278
 45,354
 +1,466
 2,465 
 +163
 16,425
 26,464
 1,202
 45,325
 +1,032
 6,917 
 +238
 10,417
 27,991
 3,911
 597
 37,190
 4,409 
 +120
 32,531
 959
 2,170
 28,894
 +217
 1,599 
 5,995
 3,339
 185
 26,283
 +1,836
 825 
 +45
 5,939
 19,519
 579,957
 420
 25,331
 +3,683
 700 
 7,797
 16,834
 545
 768
 218,195
 6,618
 23,392
 +595
 880 
 1,277
 21,235
 2,294
 86
 18,561
 +377
 1,063 
 +49
 8,265
 3,759
 215
 18,177
 +610
 2,192 
 +40
 14,980
 547
 1,800
 16,299
 +1,197
 136 
 2,215
 13,948
 15,298
 +240
 199 
 6,435
 8,664
 1,767
 15,148
 536 
 12,103
 2,509
 1,682
 221,098
 24,549
 +519
 12,872
 +1,239
 1,221 
 +152
 4,502
 51,297
 398
 12,858
 +552
 181 
 6,746
 5,931
 673
 149,212
 7,806
 12,723
 +783
 269 
 2,866
 9,588
 12,693
 +618
 1,002
 11,679
 11,273
 +381
 524 
 2,126
 8,623
 278,994
 7,372
 10,718
 240 
 8,635
 1,843
 595,161
 11,609
 10,635
 +218
 601 
 +34
 2,890
 7,144
 553
 126,645
 6,583
 9,813
 +532
 71 
 1,887
 7,855
 992
 9,590
 +817
 67 
 1,573
 7,950
 139,295
 14,741
 9,358
 +833
 929
 8,419
 3,248
 79,705
 27,665
 8,607
 +396
 720 
 +31
 1,042
 6,845
 67,828
 248
 8,445
 +235
 418 
 5,669
 2,358
 1,458
 136,738
 23,607
 8,125
 +478
 782
 7,142
 83,577
 1,911
 7,779
 +296
 151 
 1,152
 6,476
 91
 890
 59,938
 6,860
 7,493
 7,260
 1,382
 7,352
 +79
 218 
 2,453
 4,681
 687
 210,705
 19,676
 7,294
 +102
 494 
 792
 6,008
 81,292
 742
 6,695
 +20
 80 
 5,372
 1,243
 494,257
 19,383
 5,926
 273 
 822
 4,831
 546
 21,284
 1,962
 5,742
 3,762
 1,882
 177
 126,970
 3,923
 5,338
 +172
 154 
 319
 4,865
 1,237
 24,304
 5,633
 +261
 4,998
 +309
 140 
 4,745
 43,113
 262
 4,475
 +80
 186 
 1,789
 808
 77,800
 14,041
 4,361
 +141
 86 
 2,802
 161,004
 2,715
 4,319
 +227
 307 
 +13
 1,114
 2,898
 3,897
 +139
 3,201
 25,443
 +173
 185 
 1,030
 2,565
 47,406
 1,049
 3,711
 85 
 3,088
 5,928
 38,514
 61,526
 3,304
 +194
 94 
 2,385
 819
 3,256
 +129
 419 
 1,479
 1,358
 2,907
 2,547
 309
 2,892
 +278
 19 
 656
 2,217
 2,601
 646
 1,930
 139
 180,502
 9,613
 2,588
 +70
 1,160
 1,420
 1,521
 110,379
 64,869
 2,506
 130 
 1,799
 240
 63,087
 2,443
 262 
 458
 1,723
 60,801
 6,294
 2,016
 1,034
 928
 491
 30,913
 7,530
 1,905
 +115
 329
 1,566
 373
 1,862
 +58
 1,147
 210,000
 6,274
 1,790
 1,570
 210
 5,246
 45,971
 134,716
 +55
 1,224
 68,224
 1,696
 1,677
 +81
 803
 846
 17,342
 5,852
 1,635
 1,233
 35
 47,331
 35,680
 1,617
 1,080
 516
 159
 1,518
 +88
 53 
 1,486
 +65
 57 
 592
 837
 24,676
 7,521
 1,463
 +112
 47 
 188
 1,228
 7,425
 1,461
 1,118
 325
 115,015
 23,851
 1,426
 460
 524
 98,948
 36,347
 1,388
 81 
 219
 1,088
 48,179
 23,175
 17 
 386
 970
 251
 66,089
 12,105
 1,367
 +41
 374
 14,758
 7,084
 1,337
 +52
 437
 849
 118
 37,991
 3,354
 1,279
 1,135
 88,188
 2,838
 1,247
 995
 +87
 419
 644
 1,008
 633
 1,020
 11,431
 11,570
 939
 694
 20,408
 1,727
 810
 648
 807
 44 
 709
 804
 426
 45,743
 24,251
 27 
 7,015
 2,438
 704
 26,467
 3,878
 693
 242
 445
 684
 312
 39,615
 6,072
 629
 614
 276
 591
 +29
 478
 563
 369
 15,834
 4,558
 3,320
 19,095
 513
 409
 15,119
 1,179
 1,929
 56,851
 456
 114
 452
 327
 195
 59,840
 2,513
 416
 +22
 339
 390
 +62
 232
 1,393
 2,200
 8,064
 343
 231
 17,492
 295
 13,374
 10,516
 320
 510
 243
 2,796
 32,881
 97
 2,518
 850
 274
 17,423
 2,686
 206,253
 2,119
 +44
 250
 223
 7,322
 1,027
 213
 +39
 6,548
 134,007
 183
 95
 +48
 129
 6,256
 12,886
 29,455
 90
 12,688
 1,510
 1,079
 1,577
 14,771
 96
 5,584
 81
 2,124
 1,327
 4,618
 1,703
 280
 477
 1,575
 49,336
 1,693
 5,450
 367
 1,661
 1,982
 8,953
 11,603
 374.5
 Highlighted in green
 = all cases have recovered from the infection
 Highlighted in grey
 = all cases have had an outcome (there are no active cases)
 [back to top ↑]
 New York State Governor Cuomo said that preliminary findings from an antibody study conducted on 3,000 people at grocery stores across New York State found a 13.9% had coronavirus antibodies, suggesting a 13.9% actual infection rate statewide (21.2% in New York City), which translates to an estimate of about 2,700,000 actual cases in New York State (10 times more than the about 270,000 cases that have been detected and reported officially). Governor Cuomo acknowledged that the official count reported by New York State (which still is not including probable deaths as recommended by the new CDC guidelines) of about 15,500 deaths is "not accurate" as it doesn't account for stay at home deaths. Based on Worldometer's count (which includes probable deaths reported by New York City) of about 21,000 deaths and the 2,700,000 case estimate from the new antibody study, the actual case fatality rate in New York State could be at around 0.78% [source]
 NOTE: Montgomery County (PA) has lowered the reported number of deaths substantially, affecting today's count as well as the previous days statewide figures.
 The French Government has corrected its case numbers after a quality and verification process of data from EMS & EHPAD establishments highlighted over-reporting and overestimation of cumulative cases [source]. To reflect the correction made by the French Government, Worldmeter has adjusted the numbers for today and historically. [source]
 NOTE: Case total remains at 1451 as 3 of yesterday's cases were officially retracted as already recorded elsewhere. Yesterday's total has been changed to 1448. 
 Death of a 62-year-old woman with an underlying condition. She had been intubated and sedated for the last 2 weeks. Arrangements were made to allow her family to be with her when she died. Director-general of health Dr Ashley Bloomfield addressed concerns that the family had been given false hope when the woman's condition was reported as stable earlier in the week. The term "stable" meant there had been no change in her condition, he explained. On Tuesday, Bloomfield said at his daily press conference none of the patients in hospital were critical; yesterday he said they were stable, according to NZ Herald. Prime Minister Jacinda Ardern said the Government was considering changing the way it reported patients' conditions.  [source] [source] [source]
 January Timeline:
 There are three parameters to understand in order to assess the magnitude of the risk posed by this novel coronavirus: 
 The attack rate or transmissibility (how rapidly the disease spreads) of a virus is indicated by its reproductive number (Ro, pronounced R-nought or r-zero), which represents the average number of people to which a single infected person will transmit the virus.
 WHO's estimated (on Jan. 23) Ro to be between 1.4 and 2.5. [13]
 Other studies have estimated a Ro between 3.6 and 4.0, and between 2.24 to 3.58. [23]. 
 Preliminary studies had estimated Ro to be between 1.5 and 3.5. [5][6][7]
 An outbreak with a reproductive number of below 1 will gradually disappear.
 For comparison, the Ro for the common flu is 1.3 and for SARS it was 2.0.
 See full details: Coronavirus Fatality Rate
 The novel coronavirus' case fatality rate has been estimated at around 2%, in the WHO press conference held on January 29, 2020 [16] . However, it noted that, without knowing how many were infected, it was too early to be able to put a percentage on the mortality rate figure.
  A prior estimate [9] had put that number at 3%. 
 Fatality rate can change as a virus can mutate, according to epidemiologists.
 For comparison, the case fatality rate for SARS was 10%, and for MERS 34%.
 See full details: COVID-19 Coronavirus Incubation Period 
 Symptoms of COVID-19 may appear in as few as 2 days or as long as 14 (estimated ranges vary from 2-10 days, 2-14 days, and 10-14 days, see details), during which the virus is contagious but the patient does not display any symptom (asymptomatic transmission).
  See latest findings: Age, Sex, Demographics of COVID-19 Cases and Deaths 
 According to early estimates by China's National Health Commission (NHC), about 80% of those who died were over the age of 60 and 75% of them had
 pre-existing health conditions such as cardiovascular diseases and
 diabetes.[24]
 According to the WHO Situation Report no. 7 issued on Jan. 27:
 A study of 138 hospitalized patients with NCIP found that the median age was 56 years (interquartile range, 42-68; range, 22-92 years) and 75 (54.3%) were men.[25] 
 The WHO, in its Myth busters FAQs, addresses the question: "Does the new coronavirus affect older people, or are younger people also susceptible?" by answering that: 
 As of Jan. 29, according to French authorities, the conditions of the two earliest Paris cases had worsened and the patients were being treated in intensive care, according to French authorities. The patients have been described as a young couple aged 30 and 31 years old, both Chinese citizens from Wuhan who were asymptomatic when they arrived in Paris on January 18 [19].
  The NHC reported the details of the first 17 deaths up to 24 pm on January 22, 2020. The deaths included 13 males and 4 females. The median age of the deaths was 75 (range 48-89) years.[21]
 See full details: WHO coronavirus updates
 On January 30, the World Health Organization declared the coronavirus outbreak a Global Public Health Emergency.
 For more information from the WHO regarding novel coronavirus: WHO page on Novel Coronavirus (2019-nCoV) 
 https://www.worldometers.info/coronavirus/
